…
-   Combine score data with public expenditure data and filter for public education expenditure

``` r
df <- left_join(school_exp, country_score, by = "country") %>% filter(direct_expenditure_type == "Public")
```

-   Many countries in the expenditure data don't have very high ranking institutes and therefore their best scores are missing, let's impute missing best score with `1` as that is the least score of times ranking

``` r
df <- df %>% mutate(best_score = ifelse(is.na(best_score),1,best_score))
df %>% arrange(desc(total_exp))
```

    ## # A tibble: 111 x 5
    ## # Groups:   country, direct_expenditure_type [37]
    ##        country direct_expenditure_type   institute_type total_exp
    ##          <chr>                  <fctr>           <fctr>     <dbl>
    ##  1     Denmark                  Public All Institutions      7.05
    ##  2      Norway                  Public All Institutions      6.53
    ##  3     Iceland                  Public All Institutions      6.43
    ##  4      Sweden                  Public All Institutions      6.37
    ##  5     Finland                  Public All Institutions      6.17
    ##  6     Belgium                  Public All Institutions      5.85
    ##  7 New Zealand                  Public All Institutions      5.78
    ##  8      France                  Public All Institutions      5.72
    ##  9     Austria                  Public All Institutions      5.45
    ## 10    Portugal                  Public All Institutions      5.38
    ## # ... with 101 more rows, and 1 more variables: best_score <dbl>
…
